// Jest Snapshot v1, https://goo.gl/fbAQLP

exports[`BenutzerComponent with Benutzerverwaltung (schreiben) Recht create new Behoerdenbenutzer fill pflichtfelder save should post user 1`] = `
Object {
  "aktiv": null,
  "benutzername": "newUser",
  "datenberechtigung": Object {
    "akz": Array [],
    "behoerden": Array [
      "01",
    ],
    "betriebsstaetten": Array [],
    "fachmodule": Array [],
    "land": "01",
    "themen": Array [],
    "verwaltungsgebiete": Array [],
  },
  "email": null,
  "id": undefined,
  "nachname": null,
  "telefonnummer": null,
  "vorname": null,
  "zugewieseneRollen": Array [
    "BEHOERDENBENUTZER",
    "BEHOERDE_READ",
  ],
}
`;

exports[`BenutzerComponent with Benutzerverwaltung (schreiben) Recht edit behoerdenbenutzer of own behoerde edit user reset should have original benutzer 1`] = `
Object {
  "aktiv": true,
  "benutzername": "unittest",
  "datenberechtigung": Object {
    "akz": Array [
      "AKZ",
    ],
    "behoerden": Array [
      Object {
        "ktext": "01",
        "schluessel": "01",
      },
    ],
    "betriebsstaetten": Array [
      "20",
      "30",
      "40",
    ],
    "fachmodule": Array [
      "PROTOTYP",
      "PRTR_LCP",
    ],
    "themen": Array [
      "WASSER",
    ],
    "verwaltungsgebiete": Array [
      "02100",
      "02200",
    ],
  },
  "email": "unit@test.de",
  "nachname": "Test",
  "rollen": Object {
    "admin": false,
    "behoerde": "BEHOERDE_DELETE",
    "benutzerverwaltung": "BENUTZERVERWALTUNG_WRITE",
    "gesamtadmin": false,
    "land": "LAND_READ",
    "referenzenBund": null,
    "referenzenLand": null,
  },
  "telefonnummer": "+49-(0)40-229499-0",
  "vorname": "Unit",
}
`;

exports[`BenutzerComponent with Benutzerverwaltung (schreiben) Recht edit behoerdenbenutzer of own behoerde edit user save should post user 1`] = `
Object {
  "aktiv": true,
  "benutzername": "unittest",
  "datenberechtigung": Object {
    "akz": Array [
      "AKZ",
    ],
    "behoerden": Array [
      "01",
    ],
    "betriebsstaetten": Array [
      "20",
      "30",
      "40",
      "zusaetzBST",
    ],
    "fachmodule": Array [
      "PROTOTYP",
      "PRTR_LCP",
    ],
    "land": "01",
    "themen": Array [
      "WASSER",
    ],
    "verwaltungsgebiete": Array [
      "02100",
      "02200",
    ],
  },
  "email": "unit@test.de",
  "id": "00bc0ecd-054e-40d6-a4c3-9362c2c03359",
  "nachname": "Test",
  "telefonnummer": "+49-(0)40-229499-0",
  "vorname": "Neuer Vorname",
  "zugewieseneRollen": Array [
    "BEHOERDENBENUTZER",
    "LAND_READ",
    "BEHOERDE_DELETE",
    "BENUTZERVERWALTUNG_READ",
  ],
}
`;

exports[`BenutzerComponent with Benutzerverwaltung (schreiben) Recht edit behoerdenbenutzer of own behoerde should map to form 1`] = `
Object {
  "aktiv": true,
  "benutzername": "unittest",
  "datenberechtigung": Object {
    "akz": Array [
      "AKZ",
    ],
    "behoerden": Array [
      Object {
        "ktext": "01",
        "schluessel": "01",
      },
    ],
    "betriebsstaetten": Array [
      "20",
      "30",
      "40",
    ],
    "fachmodule": Array [
      "PROTOTYP",
      "PRTR_LCP",
    ],
    "themen": Array [
      "WASSER",
    ],
    "verwaltungsgebiete": Array [
      "02100",
      "02200",
    ],
  },
  "email": "unit@test.de",
  "nachname": "Test",
  "rollen": Object {
    "admin": false,
    "benutzerverwaltung": "BENUTZERVERWALTUNG_WRITE",
    "gesamtadmin": false,
    "referenzenBund": null,
    "referenzenLand": null,
  },
  "telefonnummer": "+49-(0)40-229499-0",
  "vorname": "Unit",
}
`;
